%!PS-Adobe-3.0 EPSF-3.0 
%%BoundingBox: 0 0 198 112
%%Pages: 0
%%Creator: Sun Microsystems, Inc.
%%Title: none
%%CreationDate: none
%%LanguageLevel: 2
%%EndComments
%%BeginProlog
%%BeginResource: procset SDRes-Prolog 1.0 0
/b4_inc_state save def
/dict_count countdictstack def
/op_count count 1 sub def
userdict begin
0 setgray 0 setlinecap 1 setlinewidth 0 setlinejoin 10 setmiterlimit[] 0 setdash newpath
/languagelevel where {pop languagelevel 1 ne {false setstrokeadjust false setoverprint} if} if
/bdef {bind def} bind def
/c {setgray} bdef
/l {neg lineto} bdef
/rl {neg rlineto} bdef
/lc {setlinecap} bdef
/lj {setlinejoin} bdef
/lw {setlinewidth} bdef
/ml {setmiterlimit} bdef
/ld {setdash} bdef
/m {neg moveto} bdef
/ct {6 2 roll neg 6 2 roll neg 6 2 roll neg curveto} bdef
/r {rotate} bdef
/t {neg translate} bdef
/s {scale} bdef
/sw {show} bdef
/gs {gsave} bdef
/gr {grestore} bdef
/f {findfont dup length dict begin
{1 index /FID ne {def} {pop pop} ifelse} forall /Encoding ISOLatin1Encoding def
currentdict end /NFont exch definefont pop /NFont findfont} bdef
/p {closepath} bdef
/sf {scalefont setfont} bdef
/ef {eofill}bdef
/pc {closepath stroke}bdef
/ps {stroke}bdef
/pum {matrix currentmatrix}bdef
/pom {setmatrix}bdef
/bs {/aString exch def /nXOfs exch def /nWidth exch def currentpoint nXOfs 0 rmoveto pum nWidth aString stringwidth pop div 1 scale aString show pom moveto} bdef
%%EndResource
%%EndProlog
%%BeginSetup
%%EndSetup
%%Page: 1 1
%%BeginPageSetup
%%EndPageSetup
pum
0.02834 0.02824 s 
0 -3965 t
/tm matrix currentmatrix def
tm setmatrix
-2395 -1733 t 
1 1 s 
0 lw 1 lj 0.000 c 3538 2268 m  3538 4172 l  ps
4681 2268 m  4681 4172 l  ps
7601 2268 m  7601 5315 l  ps
4300 4553 m  4300 5315 l  ps
0.996 c 5888 2369 m  2396 2369 l  2396 1734 l  9379 1734 l  9379 2369 l 
5888 2369 l  p ef
0.000 c 5888 2368 m  2396 2368 l  2396 1734 l  9379 1734 l  9379 2368 l 
5888 2368 l  pc
pum
5441 2196 t
247 -106 m  288 -96 l  280 -63 265 -38 243 -21 ct 221 -4 194 5 163 5 ct 130 5 104 -2 84 -15 ct 
63 -28 48 -47 37 -73 ct 26 -98 21 -125 21 -154 ct 21 -185 27 -213 39 -236 ct 51 -260 68 -278 90 -290 ct 
113 -302 137 -308 164 -308 ct 194 -308 219 -300 240 -285 ct 261 -270 275 -248 283 -220 ct 
244 -211 l  237 -233 227 -249 213 -259 ct 200 -269 183 -274 163 -274 ct 140 -274 120 -268 105 -257 ct 
89 -246 78 -231 72 -212 ct 65 -193 62 -174 62 -154 ct 62 -128 66 -106 73 -86 ct 
81 -67 92 -53 108 -43 ct 124 -34 141 -29 159 -29 ct 181 -29 200 -35 216 -48 ct 
231 -61 242 -81 247 -106 ct p ef
338 0 m  338 -303 l  452 -303 l  472 -303 488 -302 498 -300 ct 513 -298 526 -293 536 -286 ct 
546 -279 554 -269 560 -257 ct 566 -244 569 -230 569 -215 ct 569 -189 561 -168 544 -150 ct 
528 -132 498 -123 456 -123 ct 378 -123 l  378 0 l  338 0 l  p
378 -159 m  456 -159 l  482 -159 501 -164 512 -173 ct 523 -183 528 -197 528 -214 ct 
528 -227 525 -238 518 -247 ct 512 -256 504 -261 493 -264 ct 486 -266 474 -267 456 -267 ct 
378 -267 l  378 -159 l  p ef
818 -303 m  859 -303 l  859 -128 l  859 -98 856 -73 849 -56 ct 842 -38 829 -23 812 -12 ct 
794 -1 770 5 741 5 ct 713 5 690 0 672 -10 ct 654 -19 641 -34 634 -52 ct 626 -71 622 -96 622 -128 ct 
622 -303 l  663 -303 l  663 -129 l  663 -103 665 -83 670 -71 ct 675 -58 683 -49 695 -42 ct 
707 -35 721 -32 738 -32 ct 767 -32 787 -39 800 -52 ct 812 -65 818 -91 818 -129 ct 
818 -303 l  p ef
pom
0.996 c 4746 3692 m  3793 3692 l  3793 2804 l  5697 2804 l  5697 3692 l 
4746 3692 l  p ef
0.000 c 4745 3692 m  3792 3692 l  3792 2803 l  5697 2803 l  5697 3692 l 
4745 3692 l  pc
pum
4238 3155 t
19 -98 m  57 -101 l  59 -86 63 -73 69 -64 ct 76 -54 86 -46 100 -40 ct 113 -34 129 -31 146 -31 ct 
161 -31 174 -33 186 -38 ct 197 -42 206 -49 212 -57 ct 217 -65 220 -73 220 -82 ct 
220 -92 217 -100 212 -107 ct 207 -114 198 -120 185 -125 ct 177 -128 159 -133 132 -140 ct 
104 -146 84 -153 73 -158 ct 59 -166 48 -175 41 -187 ct 34 -198 30 -210 30 -224 ct 
30 -240 34 -254 43 -267 ct 52 -281 64 -291 81 -298 ct 98 -305 116 -308 136 -308 ct 
159 -308 179 -304 196 -297 ct 213 -290 226 -279 235 -265 ct 244 -251 249 -236 250 -218 ct 
212 -215 l  210 -234 203 -248 191 -258 ct 179 -267 162 -272 138 -272 ct 114 -272 97 -268 86 -259 ct 
75 -250 69 -239 69 -227 ct 69 -216 73 -207 81 -200 ct 88 -193 109 -186 141 -178 ct 
174 -171 196 -165 208 -159 ct 225 -151 238 -141 247 -128 ct 255 -116 259 -102 259 -85 ct 
259 -69 254 -54 245 -40 ct 236 -26 223 -15 206 -7 ct 188 1 169 5 148 5 ct 120 5 97 1 79 -7 ct 
61 -15 46 -27 36 -43 ct 25 -59 20 -78 19 -98 ct p ef
393 -33 m  398 0 l  388 2 378 3 370 3 ct 356 3 346 1 338 -3 ct 331 -8 326 -13 323 -20 ct 
320 -27 318 -42 318 -64 ct 318 -191 l  291 -191 l  291 -220 l  318 -220 l 
318 -274 l  355 -297 l  355 -220 l  393 -220 l  393 -191 l  355 -191 l 
355 -63 l  355 -53 356 -46 357 -43 ct 358 -40 360 -37 364 -36 ct 367 -34 371 -33 376 -33 ct 
381 -33 386 -33 393 -33 ct p ef
416 -110 m  416 -151 427 -181 450 -201 ct 468 -217 491 -225 518 -225 ct 548 -225 573 -215 592 -195 ct 
611 -175 620 -148 620 -113 ct 620 -85 616 -63 607 -46 ct 599 -30 587 -17 571 -8 ct 
555 1 537 5 518 5 ct 488 5 463 -5 444 -25 ct 425 -44 416 -73 416 -110 ct p
454 -110 m  454 -82 460 -61 472 -47 ct 484 -33 500 -26 518 -26 ct 536 -26 552 -33 564 -47 ct 
576 -61 582 -83 582 -111 ct 582 -138 576 -159 564 -173 ct 551 -187 536 -194 518 -194 ct 
500 -194 484 -187 472 -173 ct 460 -159 454 -138 454 -110 ct p ef
666 0 m  666 -220 l  698 -220 l  698 -187 l  707 -203 715 -213 722 -218 ct 
729 -223 737 -225 746 -225 ct 759 -225 772 -221 785 -213 ct 772 -179 l  763 -184 754 -187 745 -187 ct 
737 -187 730 -185 723 -180 ct 717 -175 712 -168 709 -159 ct 705 -146 703 -131 703 -116 ct 
703 0 l  666 0 l  p ef
958 -71 m  995 -66 l  989 -44 978 -26 961 -14 ct 945 -1 924 5 898 5 ct 866 5 841 -5 822 -25 ct 
803 -45 794 -72 794 -108 ct 794 -145 803 -174 822 -194 ct 841 -215 866 -225 896 -225 ct 
926 -225 950 -215 968 -195 ct 987 -175 996 -146 996 -110 ct 996 -108 996 -104 996 -100 ct 
832 -100 l  833 -76 840 -58 853 -45 ct 865 -32 881 -26 899 -26 ct 913 -26 925 -30 934 -37 ct 
944 -44 952 -55 958 -71 ct p
833 -131 m  958 -131 l  956 -149 952 -163 944 -173 ct 932 -187 916 -194 897 -194 ct 
879 -194 865 -188 853 -177 ct 841 -165 834 -150 833 -131 ct p ef
pom
pum
4178 3629 t
31 0 m  31 -303 l  144 -303 l  167 -303 186 -300 199 -294 ct 213 -288 224 -278 232 -265 ct 
240 -253 244 -239 244 -225 ct 244 -212 241 -200 234 -189 ct 227 -177 216 -168 202 -161 ct 
220 -156 234 -146 244 -134 ct 254 -121 259 -105 259 -88 ct 259 -74 256 -60 250 -48 ct 
244 -36 237 -27 228 -20 ct 219 -13 208 -8 195 -5 ct 182 -2 165 0 146 0 ct 31 0 l 
p
71 -176 m  136 -176 l  154 -176 167 -177 174 -180 ct 184 -183 192 -188 197 -194 ct 
202 -201 205 -210 205 -221 ct 205 -231 203 -240 198 -247 ct 193 -255 186 -260 177 -263 ct 
168 -266 153 -267 131 -267 ct 71 -267 l  71 -176 l  p
71 -36 m  146 -36 l  159 -36 168 -36 174 -37 ct 183 -39 191 -42 197 -46 ct 203 -50 208 -55 212 -63 ct 
216 -70 218 -78 218 -88 ct 218 -99 215 -109 209 -117 ct 203 -126 195 -132 185 -135 ct 
175 -138 160 -140 141 -140 ct 71 -140 l  71 -36 l  p ef
457 0 m  457 -32 l  440 -7 416 5 387 5 ct 374 5 361 3 350 -2 ct 339 -7 330 -14 325 -21 ct 
319 -29 316 -38 313 -49 ct 312 -56 311 -68 311 -84 ct 311 -220 l  348 -220 l 
348 -98 l  348 -78 349 -65 350 -59 ct 353 -49 358 -41 365 -35 ct 373 -30 383 -27 394 -27 ct 
405 -27 416 -30 426 -36 ct 436 -41 443 -49 447 -59 ct 451 -69 453 -83 453 -102 ct 
453 -220 l  490 -220 l  490 0 l  457 0 l  p ef
558 0 m  558 -191 l  526 -191 l  526 -220 l  558 -220 l  558 -243 l  558 -258 559 -269 562 -276 ct 
565 -285 572 -293 581 -299 ct 590 -305 603 -308 620 -308 ct 630 -308 642 -307 654 -304 ct 
649 -272 l  641 -273 634 -274 627 -274 ct 615 -274 607 -272 603 -267 ct 598 -262 596 -253 596 -240 ct 
596 -220 l  638 -220 l  638 -191 l  595 -191 l  595 0 l  558 0 l  p ef
672 0 m  672 -191 l  640 -191 l  640 -220 l  672 -220 l  672 -243 l  672 -258 673 -269 676 -276 ct 
679 -285 686 -293 695 -299 ct 704 -305 717 -308 734 -308 ct 744 -308 756 -307 768 -304 ct 
763 -272 l  755 -273 748 -274 741 -274 ct 729 -274 721 -272 717 -267 ct 712 -262 710 -253 710 -240 ct 
710 -220 l  752 -220 l  752 -191 l  709 -191 l  709 0 l  672 0 l  p ef
937 -71 m  974 -66 l  968 -44 957 -26 940 -14 ct 924 -1 903 5 877 5 ct 845 5 820 -5 801 -25 ct 
782 -45 773 -72 773 -108 ct 773 -145 782 -174 801 -194 ct 820 -215 845 -225 875 -225 ct 
905 -225 929 -215 947 -195 ct 966 -175 975 -146 975 -110 ct 975 -108 975 -104 975 -100 ct 
811 -100 l  812 -76 819 -58 832 -45 ct 844 -32 860 -26 878 -26 ct 892 -26 904 -30 913 -37 ct 
923 -44 931 -55 937 -71 ct p
812 -131 m  937 -131 l  935 -149 931 -163 923 -173 ct 911 -187 895 -194 876 -194 ct 
858 -194 844 -188 832 -177 ct 820 -165 813 -150 812 -131 ct p ef
1022 0 m  1022 -220 l  1054 -220 l  1054 -187 l  1063 -203 1071 -213 1078 -218 ct 
1085 -223 1093 -225 1102 -225 ct 1115 -225 1128 -221 1141 -213 ct 1128 -179 l 
1119 -184 1110 -187 1101 -187 ct 1093 -187 1086 -185 1079 -180 ct 1073 -175 1068 -168 1065 -159 ct 
1061 -146 1059 -131 1059 -116 ct 1059 0 l  1022 0 l  p ef
pom
0.996 c 4428 4708 m  3158 4708 l  3158 4073 l  5697 4073 l  5697 4708 l 
4428 4708 l  p ef
0.000 c 4427 4707 m  3158 4707 l  3158 4072 l  5697 4072 l  5697 4707 l 
4427 4707 l  pc
pum
3814 4535 t
247 -106 m  288 -96 l  280 -63 265 -38 243 -21 ct 221 -4 194 5 163 5 ct 130 5 104 -2 84 -15 ct 
63 -28 48 -47 37 -73 ct 26 -98 21 -125 21 -154 ct 21 -185 27 -213 39 -236 ct 51 -260 68 -278 90 -290 ct 
113 -302 137 -308 164 -308 ct 194 -308 219 -300 240 -285 ct 261 -270 275 -248 283 -220 ct 
244 -211 l  237 -233 227 -249 213 -259 ct 200 -269 183 -274 163 -274 ct 140 -274 120 -268 105 -257 ct 
89 -246 78 -231 72 -212 ct 65 -193 62 -174 62 -154 ct 62 -128 66 -106 73 -86 ct 
81 -67 92 -53 108 -43 ct 124 -34 141 -29 159 -29 ct 181 -29 200 -35 216 -48 ct 
231 -61 242 -81 247 -106 ct p ef
477 -27 m  464 -15 450 -7 438 -2 ct 425 3 411 5 396 5 ct 372 5 353 -1 340 -13 ct 
327 -25 320 -40 320 -58 ct 320 -69 322 -79 327 -88 ct 332 -97 339 -104 347 -109 ct 
355 -115 364 -119 374 -122 ct 381 -123 393 -125 408 -127 ct 438 -131 460 -135 475 -140 ct 
475 -145 475 -148 475 -150 ct 475 -165 471 -175 464 -181 ct 455 -190 440 -194 421 -194 ct 
403 -194 390 -191 382 -185 ct 373 -179 367 -168 363 -152 ct 326 -157 l  329 -173 335 -185 343 -195 ct 
350 -205 361 -212 376 -217 ct 390 -222 407 -225 426 -225 ct 445 -225 460 -223 472 -218 ct 
484 -214 493 -208 498 -202 ct 504 -195 508 -186 510 -176 ct 511 -170 512 -158 512 -142 ct 
512 -92 l  512 -57 513 -35 514 -26 ct 516 -17 519 -8 523 0 ct 485 0 l  481 -8 478 -17 477 -27 ct 
p
475 -111 m  461 -105 441 -101 413 -97 ct 398 -95 387 -92 380 -89 ct 374 -86 369 -82 365 -77 ct 
362 -72 360 -66 360 -59 ct 360 -49 364 -41 371 -34 ct 379 -27 390 -24 405 -24 ct 
419 -24 432 -27 444 -33 ct 455 -40 463 -48 469 -59 ct 473 -68 475 -81 475 -97 ct 
475 -111 l  p ef
714 -81 m  751 -76 l  747 -51 737 -31 720 -17 ct 704 -2 683 5 659 5 ct 629 5 605 -5 587 -25 ct 
568 -44 559 -72 559 -109 ct 559 -133 563 -154 571 -172 ct 579 -189 591 -203 607 -212 ct 
623 -221 640 -225 659 -225 ct 683 -225 703 -219 718 -207 ct 733 -195 743 -177 747 -155 ct 
711 -150 l  708 -165 701 -176 693 -183 ct 684 -190 673 -194 661 -194 ct 642 -194 626 -187 615 -174 ct 
603 -160 597 -139 597 -110 ct 597 -81 603 -59 614 -46 ct 625 -33 640 -26 659 -26 ct 
673 -26 685 -30 695 -39 ct 705 -48 711 -62 714 -81 ct p ef
783 0 m  783 -303 l  820 -303 l  820 -195 l  837 -215 859 -225 885 -225 ct 
901 -225 915 -222 927 -215 ct 939 -209 947 -200 952 -189 ct 957 -177 960 -161 960 -139 ct 
960 0 l  923 0 l  923 -140 l  923 -158 919 -172 911 -180 ct 903 -189 892 -193 877 -193 ct 
866 -193 856 -190 847 -184 ct 837 -179 830 -171 826 -161 ct 822 -151 820 -138 820 -120 ct 
820 0 l  783 0 l  p ef
1170 -71 m  1207 -66 l  1201 -44 1190 -26 1173 -14 ct 1157 -1 1136 5 1110 5 ct 
1078 5 1053 -5 1034 -25 ct 1015 -45 1006 -72 1006 -108 ct 1006 -145 1015 -174 1034 -194 ct 
1053 -215 1078 -225 1108 -225 ct 1138 -225 1162 -215 1180 -195 ct 1199 -175 1208 -146 1208 -110 ct 
1208 -108 1208 -104 1208 -100 ct 1044 -100 l  1045 -76 1052 -58 1065 -45 ct 
1077 -32 1093 -26 1111 -26 ct 1125 -26 1137 -30 1146 -37 ct 1156 -44 1164 -55 1170 -71 ct 
p
1045 -131 m  1170 -131 l  1168 -149 1164 -163 1156 -173 ct 1144 -187 1128 -194 1109 -194 ct 
1091 -194 1077 -188 1065 -177 ct 1053 -165 1046 -150 1045 -131 ct p ef
pom
0.996 c 5888 5696 m  2396 5696 l  2396 5061 l  9379 5061 l  9379 5696 l 
5888 5696 l  p ef
0.000 c 5888 5696 m  2396 5696 l  2396 5061 l  9379 5061 l  9379 5696 l 
5888 5696 l  pc
pum
4606 5523 t
31 0 m  31 -303 l  91 -303 l  163 -89 l  170 -69 174 -54 178 -44 ct 181 -55 187 -71 194 -92 ct 
268 -303 l  321 -303 l  321 0 l  282 0 l  282 -254 l  192 0 l  157 0 l 
70 -257 l  70 0 l  31 0 l  p ef
523 -27 m  510 -15 496 -7 484 -2 ct 471 3 457 5 442 5 ct 418 5 399 -1 386 -13 ct 
373 -25 366 -40 366 -58 ct 366 -69 368 -79 373 -88 ct 378 -97 385 -104 393 -109 ct 
401 -115 410 -119 420 -122 ct 427 -123 439 -125 454 -127 ct 484 -131 506 -135 521 -140 ct 
521 -145 521 -148 521 -150 ct 521 -165 517 -175 510 -181 ct 501 -190 486 -194 467 -194 ct 
449 -194 436 -191 428 -185 ct 419 -179 413 -168 409 -152 ct 372 -157 l  375 -173 381 -185 389 -195 ct 
396 -205 407 -212 422 -217 ct 436 -222 453 -225 472 -225 ct 491 -225 506 -223 518 -218 ct 
530 -214 539 -208 544 -202 ct 550 -195 554 -186 556 -176 ct 557 -170 558 -158 558 -142 ct 
558 -92 l  558 -57 559 -35 560 -26 ct 562 -17 565 -8 569 0 ct 531 0 l  527 -8 524 -17 523 -27 ct 
p
521 -111 m  507 -105 487 -101 459 -97 ct 444 -95 433 -92 426 -89 ct 420 -86 415 -82 411 -77 ct 
408 -72 406 -66 406 -59 ct 406 -49 410 -41 417 -34 ct 425 -27 436 -24 451 -24 ct 
465 -24 478 -27 490 -33 ct 501 -40 509 -48 515 -59 ct 519 -68 521 -81 521 -97 ct 
521 -111 l  p ef
617 -261 m  617 -303 l  654 -303 l  654 -261 l  617 -261 l  p
617 0 m  617 -220 l  654 -220 l  654 0 l  617 0 l  p ef
711 0 m  711 -220 l  744 -220 l  744 -189 l  760 -213 783 -225 813 -225 ct 
827 -225 839 -223 850 -218 ct 861 -213 869 -207 874 -199 ct 880 -191 884 -182 886 -172 ct 
887 -165 888 -153 888 -135 ct 888 0 l  850 0 l  850 -134 l  850 -149 849 -161 846 -168 ct 
843 -176 838 -182 831 -186 ct 823 -191 815 -193 805 -193 ct 790 -193 776 -188 765 -178 ct 
754 -168 748 -149 748 -120 ct 748 0 l  711 0 l  p ef
1068 0 m  1068 -303 l  1128 -303 l  1200 -89 l  1207 -69 1211 -54 1215 -44 ct 
1218 -55 1224 -71 1231 -92 ct 1305 -303 l  1358 -303 l  1358 0 l  1319 0 l 
1319 -254 l  1229 0 l  1194 0 l  1107 -257 l  1107 0 l  1068 0 l  p ef
1568 -71 m  1605 -66 l  1599 -44 1588 -26 1571 -14 ct 1555 -1 1534 5 1508 5 ct 
1476 5 1451 -5 1432 -25 ct 1413 -45 1404 -72 1404 -108 ct 1404 -145 1413 -174 1432 -194 ct 
1451 -215 1476 -225 1506 -225 ct 1536 -225 1560 -215 1578 -195 ct 1597 -175 1606 -146 1606 -110 ct 
1606 -108 1606 -104 1606 -100 ct 1442 -100 l  1443 -76 1450 -58 1463 -45 ct 
1475 -32 1491 -26 1509 -26 ct 1523 -26 1535 -30 1544 -37 ct 1554 -44 1562 -55 1568 -71 ct 
p
1443 -131 m  1568 -131 l  1566 -149 1562 -163 1554 -173 ct 1542 -187 1526 -194 1507 -194 ct 
1489 -194 1475 -188 1463 -177 ct 1451 -165 1444 -150 1443 -131 ct p ef
1654 0 m  1654 -220 l  1687 -220 l  1687 -189 l  1694 -200 1703 -209 1714 -215 ct 
1726 -222 1739 -225 1753 -225 ct 1770 -225 1783 -222 1793 -215 ct 1804 -208 1811 -199 1815 -187 ct 
1833 -212 1855 -225 1883 -225 ct 1905 -225 1922 -219 1933 -207 ct 1945 -195 1951 -176 1951 -151 ct 
1951 0 l  1914 0 l  1914 -139 l  1914 -154 1913 -165 1910 -171 ct 1908 -178 1903 -183 1897 -187 ct 
1891 -191 1883 -193 1875 -193 ct 1859 -193 1846 -188 1836 -178 ct 1826 -167 1821 -151 1821 -128 ct 
1821 0 l  1784 0 l  1784 -143 l  1784 -160 1781 -172 1775 -181 ct 1769 -189 1759 -193 1745 -193 ct 
1735 -193 1725 -190 1716 -185 ct 1707 -179 1701 -171 1697 -160 ct 1693 -150 1691 -134 1691 -114 ct 
1691 0 l  1654 0 l  p ef
1994 -110 m  1994 -151 2005 -181 2028 -201 ct 2046 -217 2069 -225 2096 -225 ct 
2126 -225 2151 -215 2170 -195 ct 2189 -175 2198 -148 2198 -113 ct 2198 -85 2194 -63 2185 -46 ct 
2177 -30 2165 -17 2149 -8 ct 2133 1 2115 5 2096 5 ct 2066 5 2041 -5 2022 -25 ct 
2003 -44 1994 -73 1994 -110 ct p
2032 -110 m  2032 -82 2038 -61 2050 -47 ct 2062 -33 2078 -26 2096 -26 ct 2114 -26 2130 -33 2142 -47 ct 
2154 -61 2160 -83 2160 -111 ct 2160 -138 2154 -159 2142 -173 ct 2129 -187 2114 -194 2096 -194 ct 
2078 -194 2062 -187 2050 -173 ct 2038 -159 2032 -138 2032 -110 ct p ef
2244 0 m  2244 -220 l  2276 -220 l  2276 -187 l  2285 -203 2293 -213 2300 -218 ct 
2307 -223 2315 -225 2324 -225 ct 2337 -225 2350 -221 2363 -213 ct 2350 -179 l 
2341 -184 2332 -187 2323 -187 ct 2315 -187 2308 -185 2301 -180 ct 2295 -175 2290 -168 2287 -159 ct 
2283 -146 2281 -131 2281 -116 ct 2281 0 l  2244 0 l  p ef
2384 84 m  2379 50 l  2387 52 2394 53 2401 53 ct 2409 53 2416 52 2421 49 ct 
2426 46 2430 42 2433 37 ct 2435 34 2439 24 2445 10 ct 2445 7 2446 4 2448 0 ct 2364 -220 l 
2404 -220 l  2450 -93 l  2456 -77 2461 -60 2466 -43 ct 2470 -59 2475 -75 2481 -91 ct 
2528 -220 l  2565 -220 l  2483 4 l  2474 28 2467 45 2462 54 ct 2455 66 2447 75 2439 80 ct 
2430 86 2420 89 2408 89 ct 2401 89 2393 87 2384 84 ct p ef
pom
0.695 c 7666 3665 m  6713 3665 l  6713 2777 l  8618 2777 l  8618 3665 l 
7666 3665 l  p ef
0.000 c 7665 3665 m  6713 3665 l  6713 2776 l  8617 2776 l  8617 3665 l 
7665 3665 l  pc
pum
6901 3371 t
226 -111 m  284 -93 l  275 -60 260 -35 239 -19 ct 217 -3 191 5 158 5 ct 118 5 85 -9 59 -36 ct 
33 -64 20 -102 20 -149 ct 20 -200 33 -239 59 -267 ct 85 -295 119 -309 162 -309 ct 
199 -309 229 -298 252 -276 ct 266 -263 276 -244 283 -220 ct 222 -206 l  218 -222 211 -234 200 -243 ct 
188 -252 175 -257 158 -257 ct 136 -257 118 -249 104 -233 ct 90 -216 83 -190 83 -154 ct 
83 -115 90 -88 104 -72 ct 118 -55 136 -47 158 -47 ct 175 -47 189 -52 201 -62 ct 
212 -73 221 -89 226 -111 ct p ef
333 0 m  333 -303 l  391 -303 l  391 -143 l  461 -220 l  532 -220 l  456 -139 l 
536 0 l  473 0 l  418 -99 l  391 -70 l  391 0 l  333 0 l  p ef
572 -220 m  626 -220 l  626 -188 l  633 -199 642 -208 654 -214 ct 666 -221 679 -224 694 -224 ct 
719 -224 741 -214 759 -194 ct 776 -174 785 -146 785 -110 ct 785 -74 776 -45 758 -25 ct 
741 -4 719 6 694 6 ct 682 6 671 4 661 -1 ct 651 -6 641 -14 630 -26 ct 630 84 l 
572 84 l  572 -220 l  p
629 -113 m  629 -88 634 -70 644 -58 ct 653 -46 665 -40 679 -40 ct 693 -40 704 -45 713 -56 ct 
722 -67 726 -85 726 -110 ct 726 -133 721 -150 712 -161 ct 703 -172 692 -178 678 -178 ct 
664 -178 652 -173 643 -162 ct 634 -151 629 -134 629 -113 ct p ef
933 -220 m  933 -174 l  893 -174 l  893 -84 l  893 -66 893 -55 894 -52 ct 
895 -49 897 -47 899 -45 ct 902 -43 905 -42 909 -42 ct 915 -42 922 -44 933 -48 ct 
937 -3 l  924 3 908 6 891 6 ct 881 6 872 4 863 1 ct 855 -3 849 -7 845 -13 ct 841 -19 838 -26 837 -36 ct 
836 -43 835 -57 835 -77 ct 835 -174 l  807 -174 l  807 -220 l  835 -220 l 
835 -262 l  893 -296 l  893 -220 l  933 -220 l  p ef
955 -97 m  1014 -103 l  1018 -83 1025 -69 1036 -60 ct 1047 -51 1062 -46 1080 -46 ct 
1100 -46 1115 -50 1125 -58 ct 1135 -67 1140 -76 1140 -87 ct 1140 -94 1138 -100 1134 -105 ct 
1130 -110 1122 -115 1112 -118 ct 1105 -121 1088 -125 1063 -132 ct 1030 -140 1007 -150 994 -162 ct 
975 -179 966 -199 966 -224 ct 966 -239 970 -254 979 -267 ct 988 -281 1000 -291 1017 -298 ct 
1033 -305 1053 -309 1076 -309 ct 1114 -309 1143 -301 1162 -284 ct 1181 -267 1191 -244 1192 -216 ct 
1131 -214 l  1128 -230 1123 -241 1114 -248 ct 1106 -255 1093 -258 1075 -258 ct 
1058 -258 1044 -254 1034 -247 ct 1027 -242 1024 -236 1024 -228 ct 1024 -221 1027 -215 1033 -210 ct 
1041 -203 1060 -196 1089 -189 ct 1119 -182 1141 -175 1155 -167 ct 1170 -160 1181 -149 1189 -136 ct 
1197 -123 1201 -107 1201 -88 ct 1201 -70 1196 -54 1187 -39 ct 1177 -24 1163 -12 1146 -5 ct 
1128 2 1106 6 1080 6 ct 1042 6 1012 -3 992 -20 ct 971 -38 959 -63 955 -97 ct p ef
1254 -303 m  1375 -303 l  1399 -303 1416 -302 1428 -300 ct 1440 -298 1450 -294 1460 -287 ct 
1469 -281 1477 -273 1483 -262 ct 1489 -251 1492 -239 1492 -226 ct 1492 -212 1488 -199 1481 -187 ct 
1473 -175 1463 -166 1450 -160 ct 1468 -155 1482 -146 1492 -133 ct 1502 -120 1507 -105 1507 -87 ct 
1507 -74 1504 -60 1497 -47 ct 1491 -34 1482 -24 1471 -16 ct 1460 -9 1447 -4 1430 -2 ct 
1420 -1 1396 0 1357 0 ct 1254 0 l  1254 -303 l  p
1315 -252 m  1315 -182 l  1355 -182 l  1379 -182 1394 -182 1399 -183 ct 1410 -184 1418 -188 1424 -194 ct 
1430 -200 1433 -208 1433 -218 ct 1433 -227 1430 -234 1425 -240 ct 1420 -246 1412 -250 1402 -251 ct 
1396 -252 1379 -252 1350 -252 ct 1315 -252 l  p
1315 -131 m  1315 -51 l  1371 -51 l  1393 -51 1407 -52 1413 -53 ct 1422 -54 1430 -58 1435 -65 ct 
1441 -71 1444 -80 1444 -90 ct 1444 -99 1442 -107 1437 -113 ct 1433 -119 1427 -124 1418 -127 ct 
1410 -130 1392 -131 1364 -131 ct 1315 -131 l  p ef
pom
0 3965 t 
pom
count op_count sub {pop} repeat countdictstack dict_count sub {end} repeat b4_inc_state restore
%%PageTrailer
%%Trailer
%%EOF
