%!PS-Adobe-3.0 EPSF-3.0 
%%BoundingBox: 0 0 198 112
%%Pages: 0
%%Creator: Sun Microsystems, Inc.
%%Title: none
%%CreationDate: none
%%LanguageLevel: 2
%%EndComments
%%BeginProlog
%%BeginResource: procset SDRes-Prolog 1.0 0
/b4_inc_state save def
/dict_count countdictstack def
/op_count count 1 sub def
userdict begin
0 setgray 0 setlinecap 1 setlinewidth 0 setlinejoin 10 setmiterlimit[] 0 setdash newpath
/languagelevel where {pop languagelevel 1 ne {false setstrokeadjust false setoverprint} if} if
/bdef {bind def} bind def
/c {setgray} bdef
/l {neg lineto} bdef
/rl {neg rlineto} bdef
/lc {setlinecap} bdef
/lj {setlinejoin} bdef
/lw {setlinewidth} bdef
/ml {setmiterlimit} bdef
/ld {setdash} bdef
/m {neg moveto} bdef
/ct {6 2 roll neg 6 2 roll neg 6 2 roll neg curveto} bdef
/r {rotate} bdef
/t {neg translate} bdef
/s {scale} bdef
/sw {show} bdef
/gs {gsave} bdef
/gr {grestore} bdef
/f {findfont dup length dict begin
{1 index /FID ne {def} {pop pop} ifelse} forall /Encoding ISOLatin1Encoding def
currentdict end /NFont exch definefont pop /NFont findfont} bdef
/p {closepath} bdef
/sf {scalefont setfont} bdef
/ef {eofill}bdef
/pc {closepath stroke}bdef
/ps {stroke}bdef
/pum {matrix currentmatrix}bdef
/pom {setmatrix}bdef
/bs {/aString exch def /nXOfs exch def /nWidth exch def currentpoint nXOfs 0 rmoveto pum nWidth aString stringwidth pop div 1 scale aString show pom moveto} bdef
%%EndResource
%%EndProlog
%%BeginSetup
%%EndSetup
%%Page: 1 1
%%BeginPageSetup
%%EndPageSetup
pum
0.02834 0.02844 s 
0 -3938 t
/tm matrix currentmatrix def
tm setmatrix
-11537 -1760 t 
1 1 s 
0.996 c 15030 5696 m  11538 5696 l  11538 1761 l  18521 1761 l  18521 5696 l 
15030 5696 l  p ef
0 lw 1 lj 0.000 c 15029 5696 m  11537 5696 l  11537 1761 l  18520 1761 l 
18520 5696 l  15029 5696 l  pc
35 lw 15400 3765 m  15908 3765 l  ps

pum
11788 2267 t
247 -106 m  288 -96 l  280 -63 265 -38 243 -21 ct 221 -4 194 5 163 5 ct 130 5 104 -2 84 -15 ct 
63 -28 48 -47 37 -73 ct 26 -98 21 -125 21 -154 ct 21 -185 27 -213 39 -236 ct 51 -260 68 -278 90 -290 ct 
113 -302 137 -308 164 -308 ct 194 -308 219 -300 240 -285 ct 261 -270 275 -248 283 -220 ct 
244 -211 l  237 -233 227 -249 213 -259 ct 200 -269 183 -274 163 -274 ct 140 -274 120 -268 105 -257 ct 
89 -246 78 -231 72 -212 ct 65 -193 62 -174 62 -154 ct 62 -128 66 -106 73 -86 ct 
81 -67 92 -53 108 -43 ct 124 -34 141 -29 159 -29 ct 181 -29 200 -35 216 -48 ct 
231 -61 242 -81 247 -106 ct p ef
338 0 m  338 -303 l  452 -303 l  472 -303 488 -302 498 -300 ct 513 -298 526 -293 536 -286 ct 
546 -279 554 -269 560 -257 ct 566 -244 569 -230 569 -215 ct 569 -189 561 -168 544 -150 ct 
528 -132 498 -123 456 -123 ct 378 -123 l  378 0 l  338 0 l  p
378 -159 m  456 -159 l  482 -159 501 -164 512 -173 ct 523 -183 528 -197 528 -214 ct 
528 -227 525 -238 518 -247 ct 512 -256 504 -261 493 -264 ct 486 -266 474 -267 456 -267 ct 
378 -267 l  378 -159 l  p ef
818 -303 m  859 -303 l  859 -128 l  859 -98 856 -73 849 -56 ct 842 -38 829 -23 812 -12 ct 
794 -1 770 5 741 5 ct 713 5 690 0 672 -10 ct 654 -19 641 -34 634 -52 ct 626 -71 622 -96 622 -128 ct 
622 -303 l  663 -303 l  663 -129 l  663 -103 665 -83 670 -71 ct 675 -58 683 -49 695 -42 ct 
707 -35 721 -32 738 -32 ct 767 -32 787 -39 800 -52 ct 812 -65 818 -91 818 -129 ct 
818 -303 l  p ef
pom
0.996 c 12717 4146 m  12399 4146 l  12399 2750 l  13034 2750 l  13034 4146 l 
12717 4146 l  p ef
0 lw 0.000 c 12717 4145 m  12399 4145 l  12399 2749 l  13034 2749 l  13034 4145 l 
12717 4145 l  pc
pum
12505 3592 t
39 0 m  39 -303 l  79 -303 l  79 0 l  39 0 l  p ef
152 0 m  152 -303 l  256 -303 l  279 -303 297 -302 309 -299 ct 327 -295 341 -287 354 -277 ct 
369 -263 381 -246 389 -225 ct 397 -204 401 -180 401 -153 ct 401 -130 398 -110 393 -92 ct 
388 -74 381 -59 372 -48 ct 364 -36 355 -27 345 -20 ct 335 -14 323 -9 309 -5 ct 
295 -2 279 0 261 0 ct 152 0 l  p
192 -36 m  256 -36 l  276 -36 292 -38 303 -42 ct 314 -45 323 -51 330 -57 ct 
339 -67 347 -79 352 -96 ct 357 -112 360 -131 360 -154 ct 360 -185 355 -210 344 -227 ct 
334 -244 322 -255 307 -261 ct 296 -265 279 -267 255 -267 ct 192 -267 l  192 -36 l 
p ef
pom
0.996 c 12084 4146 m  11766 4146 l  11766 2750 l  12400 2750 l  12400 4146 l 
12084 4146 l  p ef
0.000 c 12083 4145 m  11765 4145 l  11765 2749 l  12400 2749 l  12400 4145 l 
12083 4145 l  pc
pum
11895 3592 t
39 0 m  39 -303 l  79 -303 l  79 0 l  39 0 l  p ef
153 0 m  153 -303 l  357 -303 l  357 -267 l  193 -267 l  193 -174 l  335 -174 l 
335 -138 l  193 -138 l  193 0 l  153 0 l  p ef
pom
0.996 c 13352 4146 m  13034 4146 l  13034 2750 l  13669 2750 l  13669 4146 l 
13352 4146 l  p ef
0.000 c 13352 4145 m  13034 4145 l  13034 2749 l  13669 2749 l  13669 4145 l 
13352 4145 l  pc
pum
13173 3592 t
38 0 m  38 -42 l  80 -42 l  80 0 l  38 0 l  p ef
157 0 m  157 -42 l  199 -42 l  199 0 l  157 0 l  p ef
275 0 m  275 -42 l  317 -42 l  317 0 l  275 0 l  p ef
pom
35 lw 13696 3665 m  14584 3665 l  ps
0.996 c 15097 3538 m  14385 3538 l  14385 2750 l  15808 2750 l  15808 3538 l 
15097 3538 l  p ef
0 lw 0.000 c 15096 3538 m  14384 3538 l  14384 2749 l  15808 2749 l  15808 3538 l 
15096 3538 l  pc
pum
14604 3288 t
31 0 m  31 -303 l  91 -303 l  163 -89 l  170 -69 174 -54 178 -44 ct 181 -55 187 -71 194 -92 ct 
268 -303 l  321 -303 l  321 0 l  282 0 l  282 -254 l  192 0 l  157 0 l 
70 -257 l  70 0 l  31 0 l  p ef
385 0 m  385 -303 l  603 -303 l  603 -267 l  425 -267 l  425 -175 l  592 -175 l 
592 -139 l  425 -139 l  425 -36 l  610 -36 l  610 0 l  385 0 l  p ef
666 0 m  666 -303 l  726 -303 l  798 -89 l  805 -69 809 -54 813 -44 ct 816 -55 822 -71 829 -92 ct 
903 -303 l  956 -303 l  956 0 l  917 0 l  917 -254 l  827 0 l  792 0 l 
705 -257 l  705 0 l  666 0 l  p ef
pom
35 lw 16035 5034 m  16543 5034 l  ps
0.996 c 17432 5415 m  16543 5415 l  16543 4654 l  18321 4654 l  18321 5415 l 
17432 5415 l  p ef
0 lw 0.000 c 17432 5415 m  16543 5415 l  16543 4653 l  18320 4653 l  18320 5415 l 
17432 5415 l  pc
pum
17151 5178 t
34 0 m  34 -303 l  168 -303 l  195 -303 215 -300 229 -295 ct 243 -289 254 -280 262 -266 ct 
271 -252 275 -237 275 -220 ct 275 -199 268 -181 254 -166 ct 240 -151 219 -142 190 -138 ct 
201 -133 209 -128 214 -123 ct 226 -112 237 -99 247 -83 ct 299 0 l  250 0 l  210 -63 l 
198 -81 188 -95 181 -105 ct 173 -115 167 -121 161 -125 ct 155 -129 149 -132 142 -134 ct 
138 -135 131 -135 120 -135 ct 74 -135 l  74 0 l  34 0 l  p
74 -171 m  160 -171 l  178 -171 192 -173 202 -177 ct 213 -180 221 -186 226 -195 ct 
231 -203 234 -212 234 -221 ct 234 -236 229 -247 218 -256 ct 208 -265 192 -270 169 -270 ct 
74 -270 l  74 -171 l  p ef
339 0 m  339 -303 l  543 -303 l  543 -267 l  379 -267 l  379 -174 l  521 -174 l 
521 -138 l  379 -138 l  379 0 l  339 0 l  p ef
pom
35 lw 13950 3665 m  13950 4934 l  ps
0.996 c 14843 4146 m  14158 4146 l  14158 3384 l  15528 3384 l  15528 4146 l 
14843 4146 l  p ef
0 lw 0.000 c 14842 4145 m  14157 4145 l  14157 3384 l  15527 3384 l  15527 4145 l 
14842 4145 l  pc
pum
14562 3909 t
34 0 m  34 -303 l  252 -303 l  252 -267 l  74 -267 l  74 -175 l  241 -175 l 
241 -139 l  74 -139 l  74 -36 l  259 -36 l  259 0 l  34 0 l  p ef
285 0 m  400 -158 l  298 -303 l  345 -303 l  401 -224 l  412 -208 420 -197 424 -190 ct 
431 -201 439 -212 449 -224 ct 507 -303 l  553 -303 l  448 -158 l  560 0 l 
511 0 l  436 -107 l  432 -113 427 -119 423 -125 ct 418 -116 413 -109 410 -105 ct 
335 0 l  285 0 l  p ef
pom
35 lw 15908 3765 m  15908 5034 l  ps
16289 4018 m  16289 5034 l  ps
16289 4018 m  16797 4018 l  ps
0.695 c 17432 4400 m  16543 4400 l  16543 3638 l  18321 3638 l  18321 4400 l 
17432 4400 l  p ef
0 lw 0.000 c 17432 4399 m  16543 4399 l  16543 3638 l  18320 3638 l  18320 4399 l 
17432 4399 l  pc
pum
16680 4170 t
226 -111 m  284 -93 l  275 -60 260 -35 239 -19 ct 217 -3 191 5 158 5 ct 118 5 85 -9 59 -36 ct 
33 -64 20 -102 20 -149 ct 20 -200 33 -239 59 -267 ct 85 -295 119 -309 162 -309 ct 
199 -309 229 -298 252 -276 ct 266 -263 276 -244 283 -220 ct 222 -206 l  218 -222 211 -234 200 -243 ct 
188 -252 175 -257 158 -257 ct 136 -257 118 -249 104 -233 ct 90 -216 83 -190 83 -154 ct 
83 -115 90 -88 104 -72 ct 118 -55 136 -47 158 -47 ct 175 -47 189 -52 201 -62 ct 
212 -73 221 -89 226 -111 ct p ef
333 0 m  333 -303 l  391 -303 l  391 -143 l  461 -220 l  532 -220 l  456 -139 l 
536 0 l  473 0 l  418 -99 l  391 -70 l  391 0 l  333 0 l  p ef
572 -220 m  626 -220 l  626 -188 l  633 -199 642 -208 654 -214 ct 666 -221 679 -224 694 -224 ct 
719 -224 741 -214 759 -194 ct 776 -174 785 -146 785 -110 ct 785 -74 776 -45 758 -25 ct 
741 -4 719 6 694 6 ct 682 6 671 4 661 -1 ct 651 -6 641 -14 630 -26 ct 630 84 l 
572 84 l  572 -220 l  p
629 -113 m  629 -88 634 -70 644 -58 ct 653 -46 665 -40 679 -40 ct 693 -40 704 -45 713 -56 ct 
722 -67 726 -85 726 -110 ct 726 -133 721 -150 712 -161 ct 703 -172 692 -178 678 -178 ct 
664 -178 652 -173 643 -162 ct 634 -151 629 -134 629 -113 ct p ef
933 -220 m  933 -174 l  893 -174 l  893 -84 l  893 -66 893 -55 894 -52 ct 
895 -49 897 -47 899 -45 ct 902 -43 905 -42 909 -42 ct 915 -42 922 -44 933 -48 ct 
937 -3 l  924 3 908 6 891 6 ct 881 6 872 4 863 1 ct 855 -3 849 -7 845 -13 ct 841 -19 838 -26 837 -36 ct 
836 -43 835 -57 835 -77 ct 835 -174 l  807 -174 l  807 -220 l  835 -220 l 
835 -262 l  893 -296 l  893 -220 l  933 -220 l  p ef
971 0 m  971 -303 l  1099 -303 l  1132 -303 1155 -300 1170 -295 ct 1184 -289 1196 -280 1205 -266 ct 
1214 -252 1218 -236 1218 -218 ct 1218 -195 1211 -176 1198 -161 ct 1185 -146 1166 -137 1140 -133 ct 
1153 -125 1163 -117 1172 -108 ct 1180 -99 1192 -82 1206 -59 ct 1243 0 l  1171 0 l 
1127 -67 l  1111 -90 1100 -104 1094 -110 ct 1089 -116 1082 -120 1076 -123 ct 
1069 -125 1059 -126 1045 -126 ct 1032 -126 l  1032 0 l  971 0 l  p
1032 -174 m  1077 -174 l  1106 -174 1124 -175 1132 -178 ct 1139 -180 1145 -185 1149 -191 ct 
1153 -197 1155 -205 1155 -214 ct 1155 -224 1152 -233 1147 -239 ct 1141 -245 1134 -249 1124 -251 ct 
1119 -252 1104 -252 1080 -252 ct 1032 -252 l  1032 -174 l  p ef
1276 0 m  1276 -303 l  1483 -303 l  1483 -252 l  1337 -252 l  1337 -180 l 
1463 -180 l  1463 -129 l  1337 -129 l  1337 0 l  1276 0 l  p ef
pom
0.996 c 14953 5415 m  13796 5415 l  13796 4654 l  16108 4654 l  16108 5415 l 
14953 5415 l  p ef
0.000 c 14952 5415 m  13796 5415 l  13796 4653 l  16108 4653 l  16108 5415 l 
14952 5415 l  pc
pum
14493 5178 t
34 0 m  34 -303 l  168 -303 l  195 -303 215 -300 229 -295 ct 243 -289 254 -280 262 -266 ct 
271 -252 275 -237 275 -220 ct 275 -199 268 -181 254 -166 ct 240 -151 219 -142 190 -138 ct 
201 -133 209 -128 214 -123 ct 226 -112 237 -99 247 -83 ct 299 0 l  250 0 l  210 -63 l 
198 -81 188 -95 181 -105 ct 173 -115 167 -121 161 -125 ct 155 -129 149 -132 142 -134 ct 
138 -135 131 -135 120 -135 ct 74 -135 l  74 0 l  34 0 l  p
74 -171 m  160 -171 l  178 -171 192 -173 202 -177 ct 213 -180 221 -186 226 -195 ct 
231 -203 234 -212 234 -221 ct 234 -236 229 -247 218 -256 ct 208 -265 192 -270 169 -270 ct 
74 -270 l  74 -171 l  p ef
325 -147 m  325 -198 338 -237 365 -265 ct 392 -294 427 -308 470 -308 ct 498 -308 523 -301 545 -288 ct 
568 -275 585 -256 596 -232 ct 608 -208 614 -181 614 -151 ct 614 -120 608 -93 595 -69 ct 
583 -44 566 -26 543 -14 ct 520 -1 496 5 470 5 ct 441 5 416 -2 393 -16 ct 371 -29 354 -48 342 -72 ct 
331 -96 325 -121 325 -147 ct p
366 -146 m  366 -110 376 -81 395 -60 ct 415 -39 440 -29 469 -29 ct 499 -29 524 -40 544 -61 ct 
563 -82 573 -112 573 -150 ct 573 -175 569 -196 561 -214 ct 552 -233 540 -247 524 -257 ct 
508 -267 490 -272 470 -272 ct 442 -272 417 -262 397 -243 ct 376 -224 366 -191 366 -146 ct 
p ef
666 0 m  666 -303 l  779 -303 l  802 -303 821 -300 834 -294 ct 848 -288 859 -278 867 -265 ct 
875 -253 879 -239 879 -225 ct 879 -212 876 -200 869 -189 ct 862 -177 851 -168 837 -161 ct 
855 -156 869 -146 879 -134 ct 889 -121 894 -105 894 -88 ct 894 -74 891 -60 885 -48 ct 
879 -36 872 -27 863 -20 ct 854 -13 843 -8 830 -5 ct 817 -2 800 0 781 0 ct 666 0 l 
p
706 -176 m  771 -176 l  789 -176 802 -177 809 -180 ct 819 -183 827 -188 832 -194 ct 
837 -201 840 -210 840 -221 ct 840 -231 838 -240 833 -247 ct 828 -255 821 -260 812 -263 ct 
803 -266 788 -267 766 -267 ct 706 -267 l  706 -176 l  p
706 -36 m  781 -36 l  794 -36 803 -36 809 -37 ct 818 -39 826 -42 832 -46 ct 
838 -50 843 -55 847 -63 ct 851 -70 853 -78 853 -88 ct 853 -99 850 -109 844 -117 ct 
838 -126 830 -132 820 -135 ct 810 -138 795 -140 776 -140 ct 706 -140 l  706 -36 l 
p ef
pom
0 3938 t 
pom
count op_count sub {pop} repeat countdictstack dict_count sub {end} repeat b4_inc_state restore
%%PageTrailer
%%Trailer
%%EOF
